{
  "formatVersion": 1,
  "database": {
    "version": 1,
    "identityHash": "6bdfbbf0afdbc9be7e180302212aee7c",
    "entities": [
      {
        "tableName": "in_game_account",
        "createSql": "CREATE TABLE IF NOT EXISTS `${TABLE_NAME}` (`uid` INTEGER NOT NULL, `hoyolab_uid` INTEGER NOT NULL, `game` INTEGER NOT NULL, `nickname` TEXT NOT NULL, `level` INTEGER NOT NULL, `region` TEXT NOT NULL, `active` INTEGER NOT NULL, PRIMARY KEY(`uid`))",
        "fields": [
          {
            "fieldPath": "uid",
            "columnName": "uid",
            "affinity": "INTEGER",
            "notNull": true
          },
          {
            "fieldPath": "hoyolabUid",
            "columnName": "hoyolab_uid",
            "affinity": "INTEGER",
            "notNull": true
          },
          {
            "fieldPath": "game",
            "columnName": "game",
            "affinity": "INTEGER",
            "notNull": true
          },
          {
            "fieldPath": "nickname",
            "columnName": "nickname",
            "affinity": "TEXT",
            "notNull": true
          },
          {
            "fieldPath": "level",
            "columnName": "level",
            "affinity": "INTEGER",
            "notNull": true
          },
          {
            "fieldPath": "region",
            "columnName": "region",
            "affinity": "TEXT",
            "notNull": true
          },
          {
            "fieldPath": "active",
            "columnName": "active",
            "affinity": "INTEGER",
            "notNull": true
          }
        ],
        "primaryKey": {
          "columnNames": [
            "uid"
          ],
          "autoGenerate": false
        },
        "indices": [],
        "foreignKeys": []
      },
      {
        "tableName": "hoyolab_user",
        "createSql": "CREATE TABLE IF NOT EXISTS `${TABLE_NAME}` (`uid` INTEGER NOT NULL, `cookie` TEXT NOT NULL, `nickname` TEXT NOT NULL, `introduce` TEXT NOT NULL, `avatar` INTEGER NOT NULL, `gender` INTEGER NOT NULL, `avatar_url` TEXT NOT NULL, `pendant` TEXT NOT NULL, `bg_url` TEXT NOT NULL, `login_timestamp` INTEGER NOT NULL, `gameaccsync_timestamp` INTEGER NOT NULL, PRIMARY KEY(`uid`))",
        "fields": [
          {
            "fieldPath": "uid",
            "columnName": "uid",
            "affinity": "INTEGER",
            "notNull": true
          },
          {
            "fieldPath": "cookie",
            "columnName": "cookie",
            "affinity": "TEXT",
            "notNull": true
          },
          {
            "fieldPath": "nickname",
            "columnName": "nickname",
            "affinity": "TEXT",
            "notNull": true
          },
          {
            "fieldPath": "status",
            "columnName": "introduce",
            "affinity": "TEXT",
            "notNull": true
          },
          {
            "fieldPath": "avatar",
            "columnName": "avatar",
            "affinity": "INTEGER",
            "notNull": true
          },
          {
            "fieldPath": "gender",
            "columnName": "gender",
            "affinity": "INTEGER",
            "notNull": true
          },
          {
            "fieldPath": "avatarUrl",
            "columnName": "avatar_url",
            "affinity": "TEXT",
            "notNull": true
          },
          {
            "fieldPath": "frameUrl",
            "columnName": "pendant",
            "affinity": "TEXT",
            "notNull": true
          },
          {
            "fieldPath": "bannerUrl",
            "columnName": "bg_url",
            "affinity": "TEXT",
            "notNull": true
          },
          {
            "fieldPath": "loginTimestamp",
            "columnName": "login_timestamp",
            "affinity": "INTEGER",
            "notNull": true
          },
          {
            "fieldPath": "gameAccountsSyncTimestamp",
            "columnName": "gameaccsync_timestamp",
            "affinity": "INTEGER",
            "notNull": true
          }
        ],
        "primaryKey": {
          "columnNames": [
            "uid"
          ],
          "autoGenerate": false
        },
        "indices": [],
        "foreignKeys": []
      }
    ],
    "views": [],
    "setupQueries": [
      "CREATE TABLE IF NOT EXISTS room_master_table (id INTEGER PRIMARY KEY,identity_hash TEXT)",
      "INSERT OR REPLACE INTO room_master_table (id,identity_hash) VALUES(42, '6bdfbbf0afdbc9be7e180302212aee7c')"
    ]
  }
}